160 
175 
330 
298 
83 
92 
52 
175 
75 
100 
110 
77 
19 
27 
66 
116 
120 
105 
162 
168 
279 
541 
136 
232 
308 
84 
262 
120 
110 
60 
88 
111 
182 
180 
46 
46 
198 
360 
160 
133 
282 
151 
236 
153 
92 
74 
393 
92 
34 
137 
96 
24 
129 
52 
27 
387 
110 
103 
39 
50 
4 
50 
145 
31 
51 
249 
127 
123 
46 
45 
130 
39 
209 
333 
50 
249 
74 
96 
510 
412 
131 
64 
203 
172 
231 
1 
250 
146 
265 
0 
654 
65 
202 
77 
687 
117 
0 
124 
384 
117 
110 
140 
645 
300 
96 
347 
50 
240 
668 
117 
97 
178 
62 
166 
117 
276 
158 
1 
64 
1023 
151 
209 
159 
104 
0 
397 
417 
398 
0 
325 
672 
442 
244 
543 
298 
298 
202 
205 
253 
293 
333 
782 
58 
56 
111 
120 
607 
419 
622 
404 
655 
88 
454 
160 
263 
110 
163 
193 
85 
552 
74 
274 
462 
277 
68 
141 
343 
157 
192 
140 
211 
94 
138 
244 
284 
223 
279 
58 
61 
169 
98 
358 
56 
0 
138 
378 
43 
286 
82 
74 
108 
264 
561 
284 
236 
551 
444 
181 
292 
42 
391 
507 
133 
80 
177 
295 
295 
156 
582 
40 
19 
141 
249 
88 
356 
196 
34 
583 
239 
306 
116 
101 
207 
531 
153 
245 
291 
203 
140 
337 
124 
47 
62 
187 
49 
112 
92 
48 
24 
111 
107 
105 
299 
306 
18 
68 
160 
379 
87 
100 
101 
222 
91 
1 
149 
104 
223 
151 
426 
89 
96 
74 
93 
43 
119 
41 
73 
176 
120 
142 
87 
108 
30 
463 
129 
324 
243 
474 
538 
280 
402 
88 
62 
346 
428 
295 
125 
60 
298 
46 
192 
235 
239 
146 
38 
606 
69 
56 
140 
116 
200 
347 
62 
243 
218 
198 
382 
323 
344 
65 
90 
48 
79 
82 
338 
398 
115 
323 
255 
61 
206 
658 
407 
213 
383 
114 
314 
86 
360 
273 
282 
713 
83 
591 
174 
176 
224 
507 
616 
153 
511 
432 
480 
123 
139 
260 
191 
57 
180 
60 
80 
418 
114 
493 
264 
75 
102 
159 
123 
187 
226 
404 
112 
135 
383 
139 
97 
71 
58 
140 
376 
115 
134 
266 
146 
112 
24 
114 
36 
97 
136 
500 
298 
258 
461 
159 
294 
314 
351 
634 
90 
110 
315 
146 
594 
516 
234 
149 
112 
184 
315 
41 
305 
153 
239 
494 
212 
117 
509 
54 
37 
129 
97 
51 
80 
110 
33 
159 
47 
40 
45 
34 
249 
211 
36 
42 
21 
36 
69 
56 
386 
77 
60 
53 
51 
36 
40 
318 
47 
49 
516 
601 
21 
283 
61 
69 
71 
74 
57 
94 
34 
35 
53 
88 
76 
141 
160 
83 
