67 
154 
621 
134 
49 
78 
58 
202 
30 
92 
117 
39 
15 
51 
52 
196 
147 
114 
163 
362 
127 
256 
70 
99 
311 
112 
294 
112 
31 
256 
46 
66 
189 
152 
92 
40 
194 
328 
163 
138 
654 
168 
245 
72 
395 
58 
87 
89 
76 
604 
43 
124 
236 
139 
49 
76 
264 
26 
79 
125 
1 
85 
66 
85 
112 
527 
230 
20 
67 
48 
30 
32 
211 
306 
29 
115 
36 
87 
226 
400 
59 
133 
73 
71 
60 
2 
117 
66 
298 
0 
166 
320 
436 
183 
709 
59 
0 
61 
186 
48 
176 
74 
377 
300 
83 
717 
80 
117 
174 
494 
87 
177 
75 
91 
236 
152 
33 
0 
155 
1028 
249 
101 
180 
265 
0 
208 
387 
208 
0 
71 
726 
417 
249 
288 
266 
99 
239 
107 
102 
269 
340 
396 
62 
55 
99 
530 
272 
120 
642 
107 
156 
83 
190 
87 
579 
430 
152 
186 
186 
136 
146 
135 
181 
80 
50 
261 
169 
155 
107 
317 
112 
207 
301 
213 
256 
501 
80 
202 
248 
83 
417 
108 
121 
0 
71 
181 
84 
596 
347 
95 
210 
254 
144 
294 
128 
121 
206 
98 
277 
198 
434 
121 
44 
69 
166 
330 
148 
141 
298 
18 
56 
58 
69 
52 
84 
47 
33 
169 
111 
72 
132 
440 
110 
141 
96 
60 
277 
439 
84 
160 
135 
96 
105 
324 
206 
62 
97 
87 
119 
228 
53 
106 
141 
159 
21 
26 
380 
158 
99 
214 
110 
465 
384 
3 
556 
48 
128 
299 
120 
90 
94 
157 
104 
45 
104 
62 
299 
173 
238 
597 
94 
89 
31 
195 
142 
267 
128 
224 
241 
115 
99 
94 
31 
290 
101 
77 
63 
151 
64 
56 
358 
250 
527 
78 
44 
124 
270 
278 
72 
89 
220 
348 
245 
244 
49 
262 
368 
147 
667 
73 
297 
211 
61 
79 
338 
196 
142 
641 
135 
54 
115 
742 
106 
220 
76 
112 
291 
70 
186 
144 
124 
342 
206 
158 
86 
100 
129 
229 
306 
119 
225 
114 
97 
267 
287 
554 
66 
134 
333 
43 
85 
158 
125 
104 
122 
71 
236 
72 
105 
77 
232 
181 
463 
72 
414 
112 
193 
79 
250 
65 
175 
246 
141 
275 
177 
476 
34 
123 
60 
36 
147 
561 
136 
121 
978 
299 
316 
151 
304 
155 
186 
127 
297 
277 
561 
587 
542 
623 
114 
154 
164 
66 
597 
619 
217 
114 
447 
596 
233 
52 
21 
221 
86 
40 
24 
107 
38 
204 
197 
64 
92 
82 
489 
377 
180 
165 
47 
49 
66 
77 
115 
134 
27 
30 
25 
92 
13 
58 
46 
44 
138 
139 
90 
56 
108 
288 
273 
164 
49 
326 
71 
70 
42 
23 
53 
247 
557 
384 
