﻿TotalCrash,pop16
83,11651
316,12049
177,23083
271,24224
40,7154
53,7092
25,3929
138,14631
179,5858
132,7816
141,8942
120,5654
68,3307
96,4402
103,4483
49,7903
78,5252
335,14470
89,11982
101,13489
42,9286
199,19674
40,5085
50,8629
99,11755
146,7179
60,10590
153,8476
73,4520
108,9649
59,6898
127,4352
120,7053
72,6412
125,6849
135,5746
187,14012
350,26355
444,12700
229,19486
211,23264
87,22100
158,18087
59,12810
128,14583
88,10159
166,14597
66,13363
165,5043
128,23420
55,7388
25,4135
137,18355
240,6336
124,6276
156,13865
262,8836
86,3994
63,6327
150,4438
70,184
169,3574
97,10348
102,3597
56,3869
126,18733
194,9601
64,4560
205,8145
60,3096
63,4631
163,5942
70,14954
215,24402
56,4488
166,16229
289,6030
105,7657
184,18772
154,14696
239,7721
80,9925
197,6450
28,6327
138,8723
1,114
147,9113
179,11084
99,10393
9,14
258,22216
141,11417
185,16527
128,13828
185,26785
66,4554
38,24
69,4306
225,13875
84,4733
100,14660
81,5305
409,25431
121,10956
127,13747
412,26167
140,9948
126,8937
240,24671
180,18452
136,14749
306,27509
77,10120
159,14234
301,19005
160,10970
279,4975
33,85
107,10802
984,37339
500,20646
260,7418
167,6091
375,18646
72,6
221,15372
131,15241
104,16165
209,17
290,11556
405,26134
199,16415
97,8974
275,19724
343,20731
173,13039
147,8175
219,8415
205,8512
270,10444
263,12335
456,30505
149,9049
44,7746
116,15834
130,20216
160,21421
88,16340
259,22986
149,15169
275,24715
48,6510
110,16326
137,11026
196,20579
109,16617
91,13604
53,14604
105,13976
197,21394
55,10804
161,19818
142,17565
161,12245
75,10265
90,9961
70,13451
281,22709
132,15846
89,10907
94,17638
130,16506
181,22414
116,18069
304,20951
134,17432
114,11353
96,7563
82,9243
112,13339
124,14775
116,13240
75,8987
58,61
64,11551
103,14178
60,5326
290,22264
106,12758
173,12967
172,8790
194,19922
276,20050
228,21321
72,9886
122,20467
204,14765
190,14151
74,11394
54,7675
84,16093
83,18301
79,9119
116,11326
212,27072
156,24025
430,20037
114,12189
119,22904
23,3447
142,3832
140,5150
121,9376
98,6694
109,13688
69,7448
104,6207
206,22791
101,17803
58,11896
365,20299
279,16236
138,8124
46,20933
92,13166
234,8353
77,10887
100,16462
37,12057
49,12016
115,9057
81,7558
244,8511
126,26115
43,6923
89,9426
141,12809
53,3383
23,4015
154,9371
127,7694
107,13768
177,23441
168,22121
24,2902
60,5601
61,12720
241,26666
351,13308
321,16125
110,17593
165,16278
94,14848
83,184
175,21807
71,6446
63,8380
62,11518
93,16280
46,14165
49,3386
130,12082
159,15082
69,6569
83,15218
24,8009
40,10581
108,13929
146,17822
162,22114
135,13901
104,14627
31,4266
94,15924
103,10049
105,11768
41,17971
281,17140
149,20274
37,9516
157,15180
115,13352
54,4708
87,10628
107,16147
133,11889
50,10466
65,11678
183,10020
65,9856
261,13728
66,9180
263,18730
84,5622
69,6814
105,22052
193,9698
77,9700
58,9598
96,7603
291,16165
128,13023
135,8629
304,17995
199,7486
70,18593
198,28544
181,22899
171,25808
107,11290
145,10760
112,7746
78,11899
99,13363
54,13416
288,13943
220,20094
209,25712
84,20117
116,8830
107,15053
195,25549
72,15225
85,7735
59,13122
81,16796
95,11653
93,12666
961,30678
244,22440
79,10288
279,25967
52,7476
230,21785
111,12655
116,12408
115,18644
123,18309
343,22408
167,21093
158,19236
104,15261
129,18342
191,19375
285,21308
128,19755
89,7840
64,9657
215,26269
44,8326
56,13189
59,13827
140,20097
143,17224
203,9776
171,11691
177,18582
66,12014
90,17333
71,12695
95,19160
248,13988
155,17564
21,5117
95,15455
201,18222
302,16338
117,12226
59,9233
102,11446
114,14793
155,20350
124,20210
233,18917
153,23431
81,17551
286,3039
44,19205
13,4745
20,6083
110,19876
177,19221
113,19477
123,8912
180,34801
177,23399
181,11336
82,23248
31,12208
100,23163
20,14448
111,19870
97,11839
200,20726
243,22575
137,19278
73,18199
179,23844
192,16445
120,13078
134,11007
164,5368
137,22024
189,23982
67,17868
86,18569
120,17112
189,20926
242,18089
55,8305
94,3143
131,16242
76,3402
70,6874
49,3364
121,8094
41,2759
53,6631
74,6871
25,4765
106,3713
40,5881
180,18068
113,14556
86,6200
105,6660
28,3904
20,3309
108,10929
97,6370
146,14586
106,10888
68,3807
33,3871
78,4036
51,6335
47,2571
167,12257
41,7932
68,7932
204,18590
264,23112
86,3843
137,10121
164,8679
53,9980
61,10800
118,6060
20,3487
93,12244
141,5315
79,5380
149,7145
235,3421
123,6651
104,9439
124,21111
156,12905
